{
	"nodes" : [
		{"id": "1", "name": "Institution", "size": 100.0, "color": 0.4475},
		{"id": "2", "name": "UBS", "size": 20.0, "color": 0.5},
		{"id": "3", "name": "Credit Suisse", "size": 30.0, "color": 0.65},
		{"id": "4", "name": "DB", "size": 20.0, "color": 0.15},
		{"id": "5", "name": "Envestnet", "size": 15.0, "color": 0.95},
		{"id": "6", "name": "Others", "size": 15.0, "color": 0.00}
	],
	"links" : [
		{"source": "1", "target": "2", "type": 0, "width": 0.8},
		{"source": "1", "target": "3", "type": 0, "width": 0.0},
		{"source": "1", "target": "4", "type": 1, "width": 0.6},
		{"source": "1", "target": "5", "type": 0, "width": 0.1},
		{"source": "1", "target": "6", "type": 1, "width": 1.0}
	]
}